…
``` r
# format sanction announced date ------
# test
UsadaNames %>% 
    dplyr::mutate(sanction_date = lubridate::mdy(sanction_announced))
```

    #>  Warning: 22 failed to parse.

    #>  # A tibble: 595 x 6
    #>     athlete sport substance_reason sanction_terms sanction_announ…
    #>     <chr>   <chr> <chr>            <chr>          <chr>           
    #>   1 walsh,… trac… cannabinoids     6-month suspe… 06/01/2020      
    #>   2 romero… tria… androgenic anab… 4-year suspen… 05/22/2020      
    #>   3 gastel… mixe… cannabinoids     9-month suspe… 05/11/2020      
    #>   4 ortiz,… weig… cannabinoids     12-month susp… 05/04/2020      
    #>   5 hurst,… weig… androgenic anab… 4-year suspen… 04/24/2020      
    #>   6 saccen… weig… non-analytical:… 8-year suspen… 04/16/2020      
    #>   7 penche… mixe… non-analytical:… 2-year suspen… 03/23/2020      
    #>   8 gleave… cycl… oxandrolone; cl… 4-year suspen… 03/20/2020      
    #>   9 bond, … cycl… non-analytical:… 4-year suspen… 03/18/2020      
    #>  10 aguero… weig… amphetamine; mo… 4-year suspen… 03/12/2020      
    #>  # … with 585 more rows, and 1 more variable: sanction_date <date>
…
I can use the `dplyr::arrange()` function to figure out what is going on
with these dates.

``` r
UsadaNames %>%
    # order by sanction_announced
        dplyr::arrange(desc(sanction_announced)) %>% 
    # reorganize columns
        dplyr::select(athlete, 
                  sanction_announced,
                  dplyr::everything())
```

    #>  # A tibble: 595 x 5
    #>     athlete  sanction_announced sport   substance_reason     sanction_terms    
    #>     <chr>    <chr>              <chr>   <chr>                <chr>             
    #>   1 fischba… original: 12/18/2… paraly… non-analytical: ref… "2-year suspensio…
    #>   2 trafeh,… original: 12/18/2… track … non-analytical: use… "4-year suspensio…
    #>   3 lea, ro… original: 12/17/2… cycling noroxycodone         "6-month suspensi…
    #>   4 young, … original: 11/10/2… track … erythropoietin (epo… "lifetime suspens…
    #>   5 hay, amy original: 10/31/2… weight… ostarine             "2-year suspensio…
    #>   6 hunter,… original: 10/28/2… mixed … tamoxifen; boldenon… "2-year suspensio…
    #>   7 tovar, … original: 10/28/2… cycling androgenic anabolic… "2-year suspensio…
    #>   8 dotti, … original: 10/20/2… cycling androgenic anabolic… "2-year suspensio…
    #>   9 thomas,… original: 08/30/2… cycling norbolethone         "lifetime ban - l…
    #>  10 orbon, … original: 08/12/2… karate  lgd-4033             "9-month suspensi…
    #>  # … with 585 more rows
…
<!-- end list -->

``` r
UsadaBadDates %>%
        dplyr::mutate(sanction_dates = 
    # 1) split this on the "updated" pattern
             stringr::str_split(string = sanction_announced, 
                                pattern = "updated")) %>% 
    # convert the output from split into multiple rows
        tidyr::unnest(sanction_dates) %>% 
    # check this to see what is happening 
    dplyr::select(athlete, sanction_announced, sanction_dates)
```

    #>  # A tibble: 44 x 3
    #>     athlete         sanction_announced                   sanction_dates        
    #>     <chr>           <chr>                                <chr>                 
    #>   1 werdum, fabric… original 09/11/2018; updated 01/16/… "original 09/11/2018;…
    #>   2 werdum, fabric… original 09/11/2018; updated 01/16/… " 01/16/2020"         
    #>   3 jones, stirley  original: 06/17/2019; updated: 12/1… "original: 06/17/2019…
    #>   4 jones, stirley  original: 06/17/2019; updated: 12/1… ": 12/16/2019"        
    #>   5 hay, amy        original: 10/31/2017; updated: 12/1… "original: 10/31/2017…
    #>   6 hay, amy        original: 10/31/2017; updated: 12/1… ": 12/16/2019"        
    #>   7 orbon, joane    original: 08/12/2019; updated: 09/1… "original: 08/12/2019…
    #>   8 orbon, joane    original: 08/12/2019; updated: 09/1… ": 09/10/2019"        
    #>   9 ribas, amanda   original: 01/10/2018; updated 05/03… "original: 01/10/2018…
    #>  10 ribas, amanda   original: 01/10/2018; updated 05/03… " 05/03/2019"         
    #>  # … with 34 more rows
…
