…
``` r
UsadaNonAnalytic %>% 
  # tally these up
  dplyr::count(wada_cat, substance_reason) %>% 
  # spread the new variable across the columns 
  tidyr::pivot_wider(names_from = wada_cat, values_from = n) %>% 
  # now filter the substance/reasons to those in the regex
  dplyr::filter(stringr::str_detect(string = substance_reason, 
                       pattern = non_drug_sanctions_regex)) %>%
  # and arrange them by the most common non-analytic sanctions
  dplyr::arrange(desc(`non-analytic`)) 
```

    #> # A tibble: 58 x 3
    #>    substance_reason                                       `non-analytic`  `NA`
    #>    <chr>                                                           <int> <int>
    #>  1 non-analytical: refusal to submit to sample collection             29    NA
    #>  2 non-analytical: 3 whereabouts failures                             20    NA
    #>  3 non-analytical                                                      9    NA
    #>  4 non-analytical: use (vilanterol)                                    5    NA
    #>  5 non-analytical: use                                                 4    NA
    #>  6 non-analytical: use and possession (ostarine)                       4    NA
    #>  7 non-analytical: use and possession (peptides)                       4    NA
    #>  8 non-analytical: failure to appear to sample collection              3    NA
    #>  9 non-analytical: possession (peptides)                               3    NA
    #> 10 non-analytical: possession, trafficking, and administ…              3    NA
    #> # … with 48 more rows
…
